<svg width="33" height="32" viewBox="0 0 33 32" fill="none" xmlns="http://www.w3.org/2000/svg">
<g clip-path="url(#clip0_949_87)">
<circle cx="16.1216" cy="16" r="16" fill="#071C40"/>
<mask id="mask0_949_87" style="mask-type:alpha" maskUnits="userSpaceOnUse" x="0" y="0" width="33" height="32">
<circle cx="16.1216" cy="16" r="16" fill="#071C40"/>
</mask>
<g mask="url(#mask0_949_87)">
<path d="M16.1216 7C12.4872 7 9.52158 9.81855 9.52158 13.2727C9.52158 16.7269 12.4872 19.5455 16.1216 19.5455C19.756 19.5455 22.7216 16.7269 22.7216 13.2727C22.7216 9.81855 19.756 7 16.1216 7ZM16.1216 19.5455C13.206 19.551 10.4115 20.6542 8.34983 22.6136C6.28819 24.573 5.1274 27.229 5.12158 30H7.32158C7.32158 25.3686 11.2486 21.6364 16.1216 21.6364C20.9946 21.6364 24.9216 25.3686 24.9216 30H27.1216C27.1216 24.2416 22.1804 19.5455 16.1216 19.5455ZM16.1216 9.09091C18.5636 9.09091 20.5216 10.9518 20.5216 13.2727C20.5216 15.5936 18.5636 17.4545 16.1216 17.4545C13.6796 17.4545 11.7216 15.5936 11.7216 13.2727C11.7216 10.9518 13.6796 9.09091 16.1216 9.09091Z" fill="url(#paint0_linear_949_87)"/>
</g>
</g>
<defs>
<linearGradient id="paint0_linear_949_87" x1="27.0594" y1="7" x2="5.18373" y2="7" gradientUnits="userSpaceOnUse">
<stop stop-color="#A95EEE"/>
<stop offset="1" stop-color="#FF006A"/>
</linearGradient>
<clipPath id="clip0_949_87">
<rect width="32" height="32" fill="white" transform="translate(0.121582)"/>
</clipPath>
</defs>
</svg>
