<svg width="28" height="31" viewBox="0 0 28 31" fill="none" xmlns="http://www.w3.org/2000/svg">
<path d="M13.9062 0.75C7.515 0.75 2.1775 4.7 0 10.2812L2.305 11.2188C4.12625 6.55125 8.54375 3.25 13.9062 3.25C17.9587 3.25 21.5725 5.2375 23.8288 8.25H18.9062V10.75H27.6562V2H25.1562V5.8675C23.7554 4.26038 22.0265 2.97206 20.086 2.08931C18.1454 1.20657 16.0382 0.749876 13.9062 0.75ZM25.5075 20.2812C23.6863 24.9487 19.2687 28.25 13.9062 28.25C9.81 28.25 6.21125 26.2337 3.945 23.25H8.90625V20.75H0.15625V29.5H2.65625V25.6325C5.39125 28.7325 9.4 30.75 13.9062 30.75C20.2975 30.75 25.635 26.8 27.8125 21.2188L25.5075 20.2812Z" fill="url(#paint0_linear)"/>
<defs>
<linearGradient id="paint0_linear" x1="27.7339" y1="0.75" x2="0.0785655" y2="0.75" gradientUnits="userSpaceOnUse">
<stop stop-color="#A95EEE"/>
<stop offset="1" stop-color="#FF006A"/>
</linearGradient>
</defs>
</svg>
