<svg width="42" height="26" viewBox="0 0 42 26" fill="none" xmlns="http://www.w3.org/2000/svg">
<path d="M11.1111 0.15625C6.52778 0.15625 2.77778 3.90625 2.77778 8.48958C2.77778 11.2451 4.13472 13.6979 6.20694 15.2174C2.54444 17.034 0 20.8007 0 25.1562H2.77778C2.77778 20.5396 6.49444 16.8229 11.1111 16.8229C15.7278 16.8229 19.4444 20.5396 19.4444 25.1562H22.2222C22.2222 20.5396 25.9389 16.8229 30.5556 16.8229C35.1722 16.8229 38.8889 20.5396 38.8889 25.1562H41.6667C41.6667 20.7993 39.1222 17.034 35.4597 15.2174C36.5201 14.4447 37.3833 13.4327 37.9792 12.2637C38.575 11.0947 38.8867 9.80167 38.8889 8.48958C38.8889 3.90625 35.1389 0.15625 30.5556 0.15625C25.9722 0.15625 22.2222 3.90625 22.2222 8.48958C22.2222 11.2451 23.5792 13.6979 25.6514 15.2174C23.6221 16.2151 21.9424 17.8037 20.8333 19.7743C19.7242 17.8037 18.0445 16.2151 16.0153 15.2174C17.0757 14.4447 17.9389 13.4327 18.5347 12.2637C19.1306 11.0947 19.4423 9.80167 19.4444 8.48958C19.4444 3.90625 15.6944 0.15625 11.1111 0.15625ZM11.1111 2.93403C14.1986 2.93403 16.6667 5.40208 16.6667 8.48958C16.6667 11.5771 14.1986 14.0451 11.1111 14.0451C8.02361 14.0451 5.55556 11.5771 5.55556 8.48958C5.55556 5.40208 8.02361 2.93403 11.1111 2.93403ZM30.5556 2.93403C33.6431 2.93403 36.1111 5.40208 36.1111 8.48958C36.1111 11.5771 33.6431 14.0451 30.5556 14.0451C27.4681 14.0451 25 11.5771 25 8.48958C25 5.40208 27.4681 2.93403 30.5556 2.93403Z" fill="url(#paint0_linear)"/>
<defs>
<linearGradient id="paint0_linear" x1="41.549" y1="0.15625" x2="0.117701" y2="0.15625" gradientUnits="userSpaceOnUse">
<stop stop-color="#A95EEE"/>
<stop offset="1" stop-color="#FF006A"/>
</linearGradient>
</defs>
</svg>
