<svg width="20" height="15" viewBox="0 0 20 15" fill="none" xmlns="http://www.w3.org/2000/svg">
<path d="M0 6.45833V15H20V0H16.6667L0 6.45833ZM16.6667 0H0V6.45833L16.6667 0ZM3.41167 1.66667H16.5883L10 6.45833L3.41167 1.66667ZM1.66666 2.47417L9.505 8.1775L10 8.54167L10.495 8.17667L18.3333 2.475V13.3333H1.66666V2.47417Z" fill="#E30058"/>
</svg>
