<?xml version="1.0" encoding="utf-8"?>
<!-- Generator: Adobe Illustrator 25.2.3, SVG Export Plug-In . SVG Version: 6.00 Build 0)  -->
<svg version="1.1" id="Layer_1" xmlns="http://www.w3.org/2000/svg" xmlns:xlink="http://www.w3.org/1999/xlink" x="0px" y="0px"
	 viewBox="0 0 20 18" style="enable-background:new 0 0 20 18;" xml:space="preserve">
<style type="text/css">
	.st0{fill:#FF006A;}
</style>
<path class="st0" d="M1.8,0.5C0.8,0.5,0,1.3,0,2.2v10.5c0,1,0.8,1.8,1.8,1.8h6.4c-0.2-0.6-0.3-1.2-0.3-1.8H1.8V4h14v2.9
	c0.6,0.2,1.2,0.5,1.8,0.8V4c0-1-0.8-1.8-1.8-1.8h-7L7,0.5H1.8z M14,8.4c-2.4,0-4.4,1.9-4.4,4.4s1.9,4.4,4.4,4.4
	c0.9,0,1.8-0.3,2.5-0.7L18,18l1.2-1.2l-1.6-1.6c0.4-0.7,0.7-1.6,0.7-2.4C18.4,10.3,16.5,8.4,14,8.4z M14,10.1c1.5,0,2.6,1.1,2.6,2.6
	s-1.1,2.6-2.6,2.6s-2.6-1.1-2.6-2.6S12.5,10.1,14,10.1z"/>
</svg>
