<svg width="25" height="24" viewBox="0 0 25 24" fill="none" xmlns="http://www.w3.org/2000/svg">
<path d="M6.02732 2.79978C6.02732 4.35195 4.86476 5.59617 2.99569 5.59617H2.96087C1.16143 5.59729 0 4.35082 0 2.79978C0 1.21038 1.1985 7.87083e-07 3.03051 7.87083e-07C4.86476 -0.00112724 5.99362 1.21038 6.02732 2.79978ZM0.314508 23.9989H5.67462V7.80824H0.314508V23.9989ZM18.83 7.42922C15.9871 7.42922 14.7145 8.99718 13.999 10.1027V10.1545H13.9641C13.9776 10.1387 13.99 10.1207 13.999 10.1027V7.80936H8.63998C8.70962 9.32657 8.63998 24 8.63998 24H13.999V14.9577C13.999 14.4704 14.0315 13.9932 14.1753 13.6447C14.564 12.6813 15.4468 11.674 16.9228 11.674C18.8649 11.674 19.641 13.1619 19.641 15.3367V24H25V14.7174C25.0011 9.74055 22.3548 7.42922 18.83 7.42922Z" fill="#FF006A"/>
</svg>
