<svg width="26" height="21" viewBox="0 0 26 21" fill="none" xmlns="http://www.w3.org/2000/svg">
<path d="M8.17648 21C17.9878 21 23.3542 12.92 23.3542 5.91301C23.3542 5.68352 23.3542 5.45505 23.3386 5.22762C24.3826 4.477 25.2838 3.5476 26 2.48293C25.0264 2.91175 23.9937 3.19296 22.9362 3.31719C24.0497 2.65452 24.8832 1.61225 25.2814 0.38436C24.2342 1.002 23.0887 1.43728 21.8941 1.67142C21.0898 0.821323 20.0261 0.258412 18.8675 0.0697939C17.709 -0.118825 16.5202 0.0773644 15.4851 0.628001C14.4501 1.17864 13.6264 2.05302 13.1416 3.11585C12.6569 4.17868 12.538 5.37069 12.8034 6.50744C10.6826 6.40175 8.60787 5.85391 6.71387 4.89949C4.81986 3.94506 3.14895 2.60538 1.8096 0.967411C1.12746 2.13472 0.918528 3.51657 1.22536 4.83162C1.53219 6.14667 2.3317 7.29603 3.46112 8.0457C2.61221 8.02069 1.78181 7.79306 1.04 7.38202C1.04 7.40373 1.04 7.42647 1.04 7.44921C1.04034 8.67343 1.46667 9.85985 2.24669 10.8072C3.02672 11.7546 4.1124 12.4046 5.3196 12.6471C4.53426 12.86 3.71028 12.8911 2.91096 12.738C3.25183 13.7916 3.91546 14.713 4.80903 15.3732C5.70261 16.0335 6.78144 16.3996 7.89464 16.4204C6.00572 17.896 3.6723 18.6971 1.26984 18.6947C0.84542 18.6939 0.421412 18.6683 0 18.6182C2.43946 20.1743 5.27791 20.9997 8.17648 20.9959" fill="#FF006A"/>
</svg>
